Tidy data and data wrangling 🔧
…
---

## `filter` to select a subset of rows

for crashes in Durham County

.small[

```r
ncbikecrash %>%
* filter(county == "Durham")
```

```
## # A tibble: 340 x 66
##    object_id city  county region development locality on_road rural_urban
##        <int> <chr> <chr>  <chr>  <chr>       <chr>    <chr>   <chr>      
##  1      2452 Durh… Durham Piedm… Residential Urban (… <NA>    Urban      
##  2      2441 Durh… Durham Piedm… Commercial  Urban (… <NA>    Urban      
##  3      2466 Durh… Durham Piedm… Commercial  Urban (… <NA>    Urban      
##  4       549 Durh… Durham Piedm… Residential Urban (… PARK A… Urban      
##  5       598 Durh… Durham Piedm… Residential Urban (… BELT S… Urban      
##  6       603 Durh… Durham Piedm… Residential Urban (… HINSON… Urban      
##  7      3974 Durh… Durham Piedm… Commercial  Urban (… <NA>    Urban      
##  8      7134 Durh… Durham Piedm… Commercial  Urban (… <NA>    Urban      
##  9      1670 Durh… Durham Piedm… Commercial  Urban (… INFINI… Urban      
## 10      1773 Durh… Durham Piedm… Residential Urban (… <NA>    Urban      
## # … with 330 more rows, and 58 more variables: speed_limit <chr>,
## #   traffic_control <chr>, weather <chr>, workzone <chr>, bike_age <chr>,
## #   bike_age_group <chr>, bike_alcohol <chr>, bike_alcohol_drugs <chr>,
## #   bike_direction <chr>, bike_injury <chr>, bike_position <chr>,
## #   bike_race <chr>, bike_sex <chr>, driver_age <chr>, driver_age_group <chr>,
## #   driver_alcohol <chr>, driver_alcohol_drugs <chr>, driver_est_speed <chr>,
## #   driver_injury <chr>, driver_race <chr>, driver_sex <chr>,
## #   driver_vehicle_type <chr>, crash_alcohol <chr>, crash_date <chr>,
## #   crash_day <chr>, crash_group <chr>, crash_hour <int>, crash_location <chr>,
…
---

## `select` to exclude variables

.small[

```r
ncbikecrash %>%
  select(-object_id)
```

```
## # A tibble: 7,467 x 65
##    city  county region development locality on_road rural_urban speed_limit
##    <chr> <chr>  <chr>  <chr>       <chr>    <chr>   <chr>       <chr>      
##  1 None… Wayne  Coast… Farms, Woo… Rural (… SR 1915 Rural       50 - 55  M…
##  2 Hend… Vance  Piedm… Residential Mixed (… NICHOL… Urban       30 - 35  M…
##  3 None… Linco… Piedm… Farms, Woo… Rural (… US 321  Rural       50 - 55  M…
##  4 Whit… Colum… Coast… Commercial  Urban (… W BURK… Urban       30 - 35  M…
##  5 Wilm… New H… Coast… Residential Urban (… RACINE… Urban       <NA>       
##  6 None… Robes… Coast… Farms, Woo… Rural (… SR 1513 Rural       50 - 55  M…
##  7 None… Richm… Piedm… Residential Mixed (… SR 1903 Rural       30 - 35  M…
##  8 Rale… Wake   Piedm… Commercial  Urban (… PERSON… Urban       30 - 35  M…
##  9 Whit… Colum… Coast… Residential Rural (… FLOWER… Urban       30 - 35  M…
## 10 New … Craven Coast… Residential Urban (… SUTTON… Urban       20 - 25  M…
## # … with 7,457 more rows, and 57 more variables: traffic_control <chr>,
## #   weather <chr>, workzone <chr>, bike_age <chr>, bike_age_group <chr>,
## #   bike_alcohol <chr>, bike_alcohol_drugs <chr>, bike_direction <chr>,
## #   bike_injury <chr>, bike_position <chr>, bike_race <chr>, bike_sex <chr>,
## #   driver_age <chr>, driver_age_group <chr>, driver_alcohol <chr>,
## #   driver_alcohol_drugs <chr>, driver_est_speed <chr>, driver_injury <chr>,
## #   driver_race <chr>, driver_sex <chr>, driver_vehicle_type <chr>,
## #   crash_alcohol <chr>, crash_date <chr>, crash_day <chr>, crash_group <chr>,
## #   crash_hour <int>, crash_location <chr>, crash_month <chr>,
…
---

## `select` a range of variables

.small[

```r
ncbikecrash %>%
  select(city:locality)
```

```
## # A tibble: 7,467 x 5
##    city            county     region   development        locality              
##    <chr>           <chr>      <chr>    <chr>              <chr>                 
##  1 None - Rural C… Wayne      Coastal  Farms, Woods, Pas… Rural (<30% Developed)
##  2 Henderson       Vance      Piedmont Residential        Mixed (30% To 70% Dev…
##  3 None - Rural C… Lincoln    Piedmont Farms, Woods, Pas… Rural (<30% Developed)
##  4 Whiteville      Columbus   Coastal  Commercial         Urban (>70% Developed)
##  5 Wilmington      New Hanov… Coastal  Residential        Urban (>70% Developed)
##  6 None - Rural C… Robeson    Coastal  Farms, Woods, Pas… Rural (<30% Developed)
##  7 None - Rural C… Richmond   Piedmont Residential        Mixed (30% To 70% Dev…
##  8 Raleigh         Wake       Piedmont Commercial         Urban (>70% Developed)
##  9 Whiteville      Columbus   Coastal  Residential        Rural (<30% Developed)
## 10 New Bern        Craven     Coastal  Residential        Urban (>70% Developed)
## # … with 7,457 more rows
```
…
