tidymodels
…
* ğŸ˜„ This automagically creates a data frame

---

## Get predictions

```r
lm_fit %>%
  predict(new_data = Auto)
```

```
## # A tibble: 392 x 1
##    .pred
##    <dbl>
##  1 19.4 
##  2 13.9 
##  3 16.3 
##  4 16.3 
##  5 17.8 
##  6  8.68
##  7  5.21
##  8  6.00
##  9  4.42
## 10  9.95
## # â€¦ with 382 more rows
```
…
---

## Get predictions

```r
mpg_pred <- lm_fit %>%
  predict(new_data = Auto) %>%
  mutate(truth = Auto$mpg)

mpg_pred
```

```
## # A tibble: 392 x 2
##    .pred truth
##    <dbl> <dbl>
##  1 19.4     18
##  2 13.9     15
##  3 16.3     18
##  4 16.3     16
##  5 17.8     17
##  6  8.68    15
##  7  5.21    14
##  8  6.00    14
##  9  4.42    14
## 10  9.95    15
## # â€¦ with 382 more rows
```
…
## Validation set approach

```r
Auto_train <- training(Auto_split)
```

```r
Auto_train
```

.small[

```
## # A tibble: 196 x 9
##      mpg cylinders displacement horsepower weight acceleration  year origin
##    <dbl>     <dbl>        <dbl>      <dbl>  <dbl>        <dbl> <dbl>  <dbl>
##  1    14         8          455        225   4425         10      70      1
##  2    15         8          383        170   3563         10      70      1
##  3    14         8          455        225   3086         10      70      1
##  4    24         4          113         95   2372         15      70      3
##  5    18         6          199         97   2774         15.5    70      1
##  6    21         6          200         85   2587         16      70      1
##  7    27         4           97         88   2130         14.5    70      3
##  8    26         4           97         46   1835         20.5    70      2
##  9    25         4          104         95   2375         17.5    70      2
## 10    10         8          307        200   4376         15      70      1
## # â€¦ with 186 more rows, and 1 more variable: name <fct>
```
…
